%YAML 1.1
%TAG !u! tag:unity3d.com,2011:
--- !u!1001 &5006748520773148836
PrefabInstance:
  m_ObjectHideFlags: 0
  serializedVersion: 2
  m_Modification:
    m_TransformParent: {fileID: 0}
    m_Modifications:
    - target: {fileID: 2007910020764521344, guid: ddd267f3d99929c438f5638de4ab9785,
        type: 3}
      propertyPath: IsHeld
      value: 0
      objectReference: {fileID: 0}
    - target: {fileID: 2007910020764521344, guid: ddd267f3d99929c438f5638de4ab9785,
        type: 3}
      propertyPath: PieceIndex
      value: 1
      objectReference: {fileID: 0}
    - target: {fileID: 2007910020764521345, guid: ddd267f3d99929c438f5638de4ab9785,
        type: 3}
      propertyPath: m_LocalPosition.x
      value: 0
      objectReference: {fileID: 0}
    - target: {fileID: 2007910020764521345, guid: ddd267f3d99929c438f5638de4ab9785,
        type: 3}
      propertyPath: m_LocalPosition.y
      value: 2
      objectReference: {fileID: 0}
    - target: {fileID: 2007910020764521345, guid: ddd267f3d99929c438f5638de4ab9785,
        type: 3}
      propertyPath: m_LocalPosition.z
      value: 0
      objectReference: {fileID: 0}
    - target: {fileID: 2007910020764521345, guid: ddd267f3d99929c438f5638de4ab9785,
        type: 3}
      propertyPath: m_LocalRotation.x
      value: 0
      objectReference: {fileID: 0}
    - target: {fileID: 2007910020764521345, guid: ddd267f3d99929c438f5638de4ab9785,
        type: 3}
      propertyPath: m_LocalRotation.y
      value: 0
      objectReference: {fileID: 0}
    - target: {fileID: 2007910020764521345, guid: ddd267f3d99929c438f5638de4ab9785,
        type: 3}
      propertyPath: m_LocalRotation.z
      value: 0
      objectReference: {fileID: 0}
    - target: {fileID: 2007910020764521345, guid: ddd267f3d99929c438f5638de4ab9785,
        type: 3}
      propertyPath: m_LocalRotation.w
      value: 1
      objectReference: {fileID: 0}
    - target: {fileID: 2007910020764521345, guid: ddd267f3d99929c438f5638de4ab9785,
        type: 3}
      propertyPath: m_RootOrder
      value: 0
      objectReference: {fileID: 0}
    - target: {fileID: 2007910020764521345, guid: ddd267f3d99929c438f5638de4ab9785,
        type: 3}
      propertyPath: m_LocalEulerAnglesHint.x
      value: 0
      objectReference: {fileID: 0}
    - target: {fileID: 2007910020764521345, guid: ddd267f3d99929c438f5638de4ab9785,
        type: 3}
      propertyPath: m_LocalEulerAnglesHint.y
      value: 0
      objectReference: {fileID: 0}
    - target: {fileID: 2007910020764521345, guid: ddd267f3d99929c438f5638de4ab9785,
        type: 3}
      propertyPath: m_LocalEulerAnglesHint.z
      value: 0
      objectReference: {fileID: 0}
    - target: {fileID: 2007910020764521350, guid: ddd267f3d99929c438f5638de4ab9785,
        type: 3}
      propertyPath: m_Name
      value: Robot04Piece2
      objectReference: {fileID: 0}
    - target: {fileID: 2007910020886084883, guid: ddd267f3d99929c438f5638de4ab9785,
        type: 3}
      propertyPath: m_Sprite
      value: 
      objectReference: {fileID: 21300000, guid: e49071cbfa81d6f4c9b742d7a48c5138,
        type: 3}
    - target: {fileID: 2007910022286441668, guid: ddd267f3d99929c438f5638de4ab9785,
        type: 3}
      propertyPath: m_Size.x
      value: 2
      objectReference: {fileID: 0}
    - target: {fileID: 2007910022286441668, guid: ddd267f3d99929c438f5638de4ab9785,
        type: 3}
      propertyPath: m_Size.y
      value: 1.7
      objectReference: {fileID: 0}
    - target: {fileID: 2007910022286441668, guid: ddd267f3d99929c438f5638de4ab9785,
        type: 3}
      propertyPath: m_Offset.y
      value: 0.2
      objectReference: {fileID: 0}
    m_RemovedComponents: []
  m_SourcePrefab: {fileID: 100100000, guid: ddd267f3d99929c438f5638de4ab9785, type: 3}
