%YAML 1.1
%TAG !u! tag:unity3d.com,2011:
--- !u!1001 &1842832789285568532
PrefabInstance:
  m_ObjectHideFlags: 0
  serializedVersion: 2
  m_Modification:
    m_TransformParent: {fileID: 3769379470600669871}
    m_Modifications:
    - target: {fileID: -4216859302048453862, guid: 19cace9df302f924dad385a741ca4057,
        type: 3}
      propertyPath: m_LocalPosition.x
      value: 0
      objectReference: {fileID: 0}
    - target: {fileID: -4216859302048453862, guid: 19cace9df302f924dad385a741ca4057,
        type: 3}
      propertyPath: m_LocalPosition.y
      value: 0
      objectReference: {fileID: 0}
    - target: {fileID: -4216859302048453862, guid: 19cace9df302f924dad385a741ca4057,
        type: 3}
      propertyPath: m_LocalPosition.z
      value: 0
      objectReference: {fileID: 0}
    - target: {fileID: -4216859302048453862, guid: 19cace9df302f924dad385a741ca4057,
        type: 3}
      propertyPath: m_LocalRotation.x
      value: 0
      objectReference: {fileID: 0}
    - target: {fileID: -4216859302048453862, guid: 19cace9df302f924dad385a741ca4057,
        type: 3}
      propertyPath: m_LocalRotation.y
      value: 0
      objectReference: {fileID: 0}
    - target: {fileID: -4216859302048453862, guid: 19cace9df302f924dad385a741ca4057,
        type: 3}
      propertyPath: m_LocalRotation.z
      value: 0
      objectReference: {fileID: 0}
    - target: {fileID: -4216859302048453862, guid: 19cace9df302f924dad385a741ca4057,
        type: 3}
      propertyPath: m_LocalRotation.w
      value: 1
      objectReference: {fileID: 0}
    - target: {fileID: -4216859302048453862, guid: 19cace9df302f924dad385a741ca4057,
        type: 3}
      propertyPath: m_RootOrder
      value: 1
      objectReference: {fileID: 0}
    - target: {fileID: -4216859302048453862, guid: 19cace9df302f924dad385a741ca4057,
        type: 3}
      propertyPath: m_LocalEulerAnglesHint.x
      value: 0
      objectReference: {fileID: 0}
    - target: {fileID: -4216859302048453862, guid: 19cace9df302f924dad385a741ca4057,
        type: 3}
      propertyPath: m_LocalEulerAnglesHint.y
      value: 0
      objectReference: {fileID: 0}
    - target: {fileID: -4216859302048453862, guid: 19cace9df302f924dad385a741ca4057,
        type: 3}
      propertyPath: m_LocalEulerAnglesHint.z
      value: 0
      objectReference: {fileID: 0}
    - target: {fileID: -927199367670048503, guid: 19cace9df302f924dad385a741ca4057,
        type: 3}
      propertyPath: m_Name
      value: Robot04
      objectReference: {fileID: 0}
    m_RemovedComponents: []
  m_SourcePrefab: {fileID: 100100000, guid: 19cace9df302f924dad385a741ca4057, type: 3}
--- !u!1001 &3680744763655488481
PrefabInstance:
  m_ObjectHideFlags: 0
  serializedVersion: 2
  m_Modification:
    m_TransformParent: {fileID: 0}
    m_Modifications:
    - target: {fileID: 530060760892377422, guid: 15d30c8218c75234ca7233f5052830b9,
        type: 3}
      propertyPath: m_LocalPosition.x
      value: 0
      objectReference: {fileID: 0}
    - target: {fileID: 530060760892377422, guid: 15d30c8218c75234ca7233f5052830b9,
        type: 3}
      propertyPath: m_LocalPosition.y
      value: 1
      objectReference: {fileID: 0}
    - target: {fileID: 530060760892377422, guid: 15d30c8218c75234ca7233f5052830b9,
        type: 3}
      propertyPath: m_LocalPosition.z
      value: 0
      objectReference: {fileID: 0}
    - target: {fileID: 530060760892377422, guid: 15d30c8218c75234ca7233f5052830b9,
        type: 3}
      propertyPath: m_LocalRotation.x
      value: 0
      objectReference: {fileID: 0}
    - target: {fileID: 530060760892377422, guid: 15d30c8218c75234ca7233f5052830b9,
        type: 3}
      propertyPath: m_LocalRotation.y
      value: 0
      objectReference: {fileID: 0}
    - target: {fileID: 530060760892377422, guid: 15d30c8218c75234ca7233f5052830b9,
        type: 3}
      propertyPath: m_LocalRotation.z
      value: 0
      objectReference: {fileID: 0}
    - target: {fileID: 530060760892377422, guid: 15d30c8218c75234ca7233f5052830b9,
        type: 3}
      propertyPath: m_LocalRotation.w
      value: 1
      objectReference: {fileID: 0}
    - target: {fileID: 530060760892377422, guid: 15d30c8218c75234ca7233f5052830b9,
        type: 3}
      propertyPath: m_RootOrder
      value: 0
      objectReference: {fileID: 0}
    - target: {fileID: 530060760892377422, guid: 15d30c8218c75234ca7233f5052830b9,
        type: 3}
      propertyPath: m_LocalEulerAnglesHint.x
      value: 0
      objectReference: {fileID: 0}
    - target: {fileID: 530060760892377422, guid: 15d30c8218c75234ca7233f5052830b9,
        type: 3}
      propertyPath: m_LocalEulerAnglesHint.y
      value: 0
      objectReference: {fileID: 0}
    - target: {fileID: 530060760892377422, guid: 15d30c8218c75234ca7233f5052830b9,
        type: 3}
      propertyPath: m_LocalEulerAnglesHint.z
      value: 0
      objectReference: {fileID: 0}
    - target: {fileID: 2654318009635269784, guid: 15d30c8218c75234ca7233f5052830b9,
        type: 3}
      propertyPath: m_RootOrder
      value: 0
      objectReference: {fileID: 0}
    - target: {fileID: 4945936934485833413, guid: 15d30c8218c75234ca7233f5052830b9,
        type: 3}
      propertyPath: m_Name
      value: RobotLight02
      objectReference: {fileID: 0}
    - target: {fileID: 7321141118990776513, guid: 15d30c8218c75234ca7233f5052830b9,
        type: 3}
      propertyPath: m_IsActive
      value: 0
      objectReference: {fileID: 0}
    m_RemovedComponents: []
  m_SourcePrefab: {fileID: 100100000, guid: 15d30c8218c75234ca7233f5052830b9, type: 3}
--- !u!4 &3769379470600669871 stripped
Transform:
  m_CorrespondingSourceObject: {fileID: 530060760892377422, guid: 15d30c8218c75234ca7233f5052830b9,
    type: 3}
  m_PrefabInstance: {fileID: 3680744763655488481}
  m_PrefabAsset: {fileID: 0}
